{
    "name": "docker-registry",
    "enabled": "true",
    "root_dir": "docker-registry",
    "build_cmd": "make build",
    "clean_cmd": "make clean",
    "cleanall_cmd": "make clean_all",
    "docker": {
        "image_name": "docker.io/registry",
        "image_tag": "2.7",
        "labels": {
            "Software": "Docker Registry"
        }
    },
    "image": {
        "name": "docker-registry",
        "tag": "v0.1"
    }
}

